%YAML 1.1
%TAG !u! tag:unity3d.com,2011:
--- !u!114 &11400000
MonoBehaviour:
  m_ObjectHideFlags: 0
  m_CorrespondingSourceObject: {fileID: 0}
  m_PrefabInstance: {fileID: 0}
  m_PrefabAsset: {fileID: 0}
  m_GameObject: {fileID: 0}
  m_Enabled: 1
  m_EditorHideFlags: 0
  m_Script: {fileID: 11500000, guid: 366b45e76d2c36f40a851c27f716c356, type: 3}
  m_Name: CrystalScrapColllector1
  m_EditorClassIdentifier: 
  name: Scrap Collector
  desc: Each time you kill an enemy, gain 0.25 Crystals
  icon: {fileID: 0}
  foodCost: 25
  mineralCost: 15
  key: killEnemyCrystalBonus
  value: 0.25
  conditionValue: 0
  requirements: []
